{
    "name": "DeviceModel",
    "fields": [
        {
            "fieldName": "name",
            "fieldType": "String",
            "fieldValidateRules": [
                "required"
            ]
        },
        {
            "fieldName": "type",
            "fieldType": "DeviceType",
            "fieldValues": "GTX,PULSE,MOCK",
            "fieldValidateRules": [
                "required"
            ]
        }
    ],
    "relationships": [
        {
            "relationshipType": "many-to-many",
            "otherEntityName": "deviceCapability",
            "otherEntityRelationshipName": "deviceModels",
            "relationshipValidateRules": "required",
            "relationshipName": "capabilities",
            "otherEntityField": "type",
            "ownerSide": true
        }
    ],
    "changelogDate": "20200507080100",
    "entityTableName": "device_model",
    "dto": "no",
    "pagination": "no",
    "service": "serviceImpl",
    "jpaMetamodelFiltering": false,
    "fluentMethods": true,
    "readOnly": false,
    "embedded": false,
    "clientRootFolder": "",
    "applications": "*"
}